%YAML 1.1
%TAG !u! tag:unity3d.com,2011:
--- !u!114 &11400000
MonoBehaviour:
  m_ObjectHideFlags: 0
  m_CorrespondingSourceObject: {fileID: 0}
  m_PrefabInstance: {fileID: 0}
  m_PrefabAsset: {fileID: 0}
  m_GameObject: {fileID: 0}
  m_Enabled: 1
  m_EditorHideFlags: 0
  m_Script: {fileID: 11500000, guid: 85d53e1019bb6c74285a8b46fa98024a, type: 3}
  m_Name: AchievementData
  m_EditorClassIdentifier: 
  achievementListContainer:
    achievementList:
    - Name: Racha de 5 respuestas
      MaxCounter: 5
      CurrentCounter: 0
      MaxLevel: 5
      CurrentLevel: 0
      MaxCounterDifficulty: 0
      GiftsObtained: 0
      GiftData:
      - Name: Bomba
        Amount: 9
      - Name: Reloj
        Amount: 9
    - Name: Ronda sin fallas
      MaxCounter: 5
      CurrentCounter: 0
      MaxLevel: 5
      CurrentLevel: 0
      MaxCounterDifficulty: 0
      GiftsObtained: 0
      GiftData:
      - Name: Bomba
        Amount: 9
      - Name: Reloj
        Amount: 9
