%YAML 1.1
%TAG !u! tag:unity3d.com,2011:
--- !u!114 &11400000
MonoBehaviour:
  m_ObjectHideFlags: 0
  m_CorrespondingSourceObject: {fileID: 0}
  m_PrefabInstance: {fileID: 0}
  m_PrefabAsset: {fileID: 0}
  m_GameObject: {fileID: 0}
  m_Enabled: 1
  m_EditorHideFlags: 0
  m_Script: {fileID: 11500000, guid: 0ad9f6be95d8c3446849ae19b031baed, type: 3}
  m_Name: Power Up Delete Option
  m_EditorClassIdentifier: 
  amount: 100
  unitCost: 150
  discount: 30
  nameInPlayerPrefs: pu_deleteOption
