%YAML 1.1
%TAG !u! tag:unity3d.com,2011:
--- !u!114 &11400000
MonoBehaviour:
  m_ObjectHideFlags: 0
  m_CorrespondingSourceObject: {fileID: 0}
  m_PrefabInstance: {fileID: 0}
  m_PrefabAsset: {fileID: 0}
  m_GameObject: {fileID: 0}
  m_Enabled: 1
  m_EditorHideFlags: 0
  m_Script: {fileID: 11500000, guid: 8800035874fd0524db802bd3b303a28b, type: 3}
  m_Name: ButtonAnimationParameters
  m_EditorClassIdentifier: 
  _animationCurve:
    serializedVersion: 2
    m_Curve:
    - serializedVersion: 3
      time: -0.0030059814
      value: 1
      inSlope: -0.049572706
      outSlope: -0.049572706
      tangentMode: 0
      weightedMode: 0
      inWeight: 0
      outWeight: 1
    - serializedVersion: 3
      time: 1
      value: 0.9
      inSlope: -0.050085254
      outSlope: -0.050085254
      tangentMode: 0
      weightedMode: 0
      inWeight: 1
      outWeight: 0
    m_PreInfinity: 2
    m_PostInfinity: 2
    m_RotationOrder: 4
  _timeDuration: 0.05
  _animationInverseCurve:
    serializedVersion: 2
    m_Curve: []
    m_PreInfinity: 2
    m_PostInfinity: 2
    m_RotationOrder: 4
