%YAML 1.1
%TAG !u! tag:unity3d.com,2011:
--- !u!114 &11400000
MonoBehaviour:
  m_ObjectHideFlags: 0
  m_CorrespondingSourceObject: {fileID: 0}
  m_PrefabInstance: {fileID: 0}
  m_PrefabAsset: {fileID: 0}
  m_GameObject: {fileID: 0}
  m_Enabled: 1
  m_EditorHideFlags: 0
  m_Script: {fileID: 11500000, guid: 6420b0c21fc422742b2e95c1106fe675, type: 3}
  m_Name: RouletteMoreTimeSO
  m_EditorClassIdentifier: 
  spritePowerUp: {fileID: 21300000, guid: 8df9359a2a3a5424097b869b3a0822aa, type: 3}
  powerUpSO: {fileID: 11400000, guid: 9026b1be2dac5c140aaca71b68c20ffb, type: 2}
